Coding to code::proof: Practice fundamentals of automated testing for collaborative data analysis development
…
6.2.3 Sketch-diagram

An image or diagram is very help, if not burdonsomely time consuming (but it often is). This section is only useful for those who enjoy graph theory and visualisation, and is not essential.

For those comfortable with graphs understood as mathematical objects as a set of vertices from \(V\), and a set of edges \(V \times V\), there are visualisation options where the vertices can be tagged with attributes. The code for constructing the following nodes and edges dataframes has been omitted for brevity, but all code can be found in this manuscripts associated repository neet on GitHub.

library(tidyverse)
library(ggraph)
library(tidygraph)

By tagging the nodes in this graph with the attribute state in the algorithm: starting with input for the estimators, sample quartiles (which we denote \(a, q1, m, q3, b\), in order from smallest to largest); estimator, a collection of functions that provide statistical methods for preparing summary medians for meta-analysis; and the output of the estimator.

nodes

## # A tibble: 24 x 2
##    node    state    
##    <chr>   <fct>    
##  1 a       input    
##  2 b       input    
##  3 q1      input    
##  4 q3      input    
##  5 m       input    
##  6 n       input    
##  7 hozo    estimator
##  8 pren_c3 estimator
##  9 pren_c1 estimator
## 10 bland   estimator
## #  with 14 more rows

Edges are specified by a two-column dataframe, edges, where each row contains a to and from vertex identifier, the row number of the nodes dataframe.

edges

## # A tibble: 84 x 2
##     from    to
##    <dbl> <dbl>
##  1     5     7
##  2     6     7
##  3     1     7
##  4     2     7
##  5     7    15
##  6     7    16
##  7     5    11
##  8     6    11
##  9     1    11
## 10     2    11
## #  with 74 more rows
…
